EDA_peer.utf8
…
The data is right-skewed.From the histogram we can see that most of houses in the data set were built less than 50 years.The ames_train data does not include any houses built after 2010. * * *

2 

The mantra in real estate is Location, Location, Location! Make a graphical display that relates a home price to its neighborhood in Ames, Iowa. Which summary statistics are most appropriate to use for determining the most expensive, least expensive, and most heterogeneous (having the most variation in housing price) neighborhoods? Report which neighborhoods these are based on the summary statistics of your choice. Report the value of your chosen summary statistics for these neighborhoods.

# type your code for Question 2 here, and Knit
demo_761 <- subset(ames_train,ames_train$Neighborhood=="IDOTRR")
demo_762 <- subset(ames_train,ames_train$Neighborhood=="NAmes")
demo_763 <- subset(ames_train,ames_train$Neighborhood=="NWAmes")
demo_764 <- subset(ames_train,ames_train$Neighborhood=="SWISU")
demo_761

## # A tibble: 35 x 81
##       PID  area  price MS.SubClass MS.Zoning Lot.Frontage Lot.Area Street Alley
##     <int> <int>  <int>       <int> <fct>            <int>    <int> <fct>  <fct>
##  1 9.11e8  1001 124900          30 C (all)             60     6060 Pave   <NA> 
##  2 9.10e8   672  72000          30 RM                  61     8534 Pave   <NA> 
##  3 9.03e8  1355 127000          70 RM                  60     6882 Pave   <NA> 
##  4 9.11e8  1049  80900          50 C (all)             52     5150 Pave   <NA> 
##  5 9.11e8  1396 115000         190 C (all)             50     9000 Pave   <NA> 
##  6 9.10e8  1154 125500          50 RM                  40     5436 Pave   <NA> 
##  7 9.10e8   641  85000          30 RM                  50     7030 Pave   <NA> 
##  8 9.03e8  1484  50000          50 RM                  60    10320 Pave   Grvl 
##  9 9.10e8   816  75200          30 RM                  46     3672 Pave   <NA> 
## 10 9.03e8  1108 139400          45 RM                  57     7449 Pave   Grvl 
## #  with 25 more rows, and 72 more variables: Lot.Shape <fct>,
## #   Land.Contour <fct>, Utilities <fct>, Lot.Config <fct>, Land.Slope <fct>,
## #   Neighborhood <fct>, Condition.1 <fct>, Condition.2 <fct>, Bldg.Type <fct>,
## #   House.Style <fct>, Overall.Qual <int>, Overall.Cond <int>,
## #   Year.Built <int>, Year.Remod.Add <int>, Roof.Style <fct>, Roof.Matl <fct>,
## #   Exterior.1st <fct>, Exterior.2nd <fct>, Mas.Vnr.Type <fct>,
## #   Mas.Vnr.Area <int>, Exter.Qual <fct>, Exter.Cond <fct>, Foundation <fct>,
## #   Bsmt.Qual <fct>, Bsmt.Cond <fct>, Bsmt.Exposure <fct>,
## #   BsmtFin.Type.1 <fct>, BsmtFin.SF.1 <int>, BsmtFin.Type.2 <fct>,
…
demo_762

## # A tibble: 155 x 81
##       PID  area  price MS.SubClass MS.Zoning Lot.Frontage Lot.Area Street Alley
##     <int> <int>  <int>       <int> <fct>            <int>    <int> <fct>  <fct>
##  1 5.35e8  1394 159000          20 RL                  NA     9500 Pave   <NA> 
##  2 5.35e8  1269 155000          20 RL                  70     7931 Pave   <NA> 
##  3 5.27e8   988 129250          20 RL                  65     7150 Pave   <NA> 
##  4 5.35e8  1312 186000          20 RL                  76    11355 Pave   <NA> 
##  5 5.34e8  1248 151500          20 RL                  80    10800 Pave   <NA> 
##  6 5.35e8  1256 159000          20 RL                  80     8000 Pave   <NA> 
##  7 5.27e8   936 111900          20 RL                  68    10295 Pave   <NA> 
##  8 5.35e8  1370 148000          80 RL                 125    10000 Pave   <NA> 
##  9 5.35e8   925  99000          20 RL                  70     7000 Pave   <NA> 
## 10 5.35e8  1431 165000          80 RL                 101     9150 Pave   <NA> 
## #  with 145 more rows, and 72 more variables: Lot.Shape <fct>,
## #   Land.Contour <fct>, Utilities <fct>, Lot.Config <fct>, Land.Slope <fct>,
## #   Neighborhood <fct>, Condition.1 <fct>, Condition.2 <fct>, Bldg.Type <fct>,
## #   House.Style <fct>, Overall.Qual <int>, Overall.Cond <int>,
## #   Year.Built <int>, Year.Remod.Add <int>, Roof.Style <fct>, Roof.Matl <fct>,
## #   Exterior.1st <fct>, Exterior.2nd <fct>, Mas.Vnr.Type <fct>,
## #   Mas.Vnr.Area <int>, Exter.Qual <fct>, Exter.Cond <fct>, Foundation <fct>,
## #   Bsmt.Qual <fct>, Bsmt.Cond <fct>, Bsmt.Exposure <fct>,
## #   BsmtFin.Type.1 <fct>, BsmtFin.SF.1 <int>, BsmtFin.Type.2 <fct>,
…
demo_763

## # A tibble: 41 x 81
##       PID  area  price MS.SubClass MS.Zoning Lot.Frontage Lot.Area Street Alley
##     <int> <int>  <int>       <int> <fct>            <int>    <int> <fct>  <fct>
##  1 5.34e8  1665 227000          60 RL                  70     8400 Pave   <NA> 
##  2 5.34e8  1610 205000          20 RL                  NA    10603 Pave   <NA> 
##  3 5.34e8  2090 200000          60 RL                  NA    10382 Pave   <NA> 
##  4 5.27e8  2030 195000          60 RL                  NA    12046 Pave   <NA> 
##  5 5.27e8  1868 178000          80 RL                  78    12090 Pave   <NA> 
##  6 5.27e8  2044 185000          60 RL                  80    10400 Pave   <NA> 
##  7 5.34e8  1790 165150          60 RL                  80    10400 Pave   <NA> 
##  8 5.27e8  2872 272000          60 RL                  NA    12227 Pave   <NA> 
##  9 5.27e8  1411  82500          20 RL                  85    11900 Pave   <NA> 
## 10 5.27e8  2353 260000          60 RL                  94    13005 Pave   <NA> 
## #  with 31 more rows, and 72 more variables: Lot.Shape <fct>,
## #   Land.Contour <fct>, Utilities <fct>, Lot.Config <fct>, Land.Slope <fct>,
## #   Neighborhood <fct>, Condition.1 <fct>, Condition.2 <fct>, Bldg.Type <fct>,
## #   House.Style <fct>, Overall.Qual <int>, Overall.Cond <int>,
## #   Year.Built <int>, Year.Remod.Add <int>, Roof.Style <fct>, Roof.Matl <fct>,
## #   Exterior.1st <fct>, Exterior.2nd <fct>, Mas.Vnr.Type <fct>,
## #   Mas.Vnr.Area <int>, Exter.Qual <fct>, Exter.Cond <fct>, Foundation <fct>,
## #   Bsmt.Qual <fct>, Bsmt.Cond <fct>, Bsmt.Exposure <fct>,
## #   BsmtFin.Type.1 <fct>, BsmtFin.SF.1 <int>, BsmtFin.Type.2 <fct>,
…
