EDA_peer.utf8
…
# Most expensive neighborhood

ames_train %>%
  group_by(Neighborhood) %>%
  summarise(median = median(price), mean = mean(price)) %>%
  arrange(desc(mean))

## # A tibble: 27 x 3
##    Neighborhood  median    mean
##    <fct>          <dbl>   <dbl>
##  1 StoneBr      340692. 339316.
##  2 NridgHt      336860  333647.
##  3 NoRidge      290000  295845.
##  4 GrnHill      280000  280000 
##  5 Timber       232500  265192.
##  6 Somerst      221650  234596.
##  7 Veenker      205750  233650 
##  8 Crawfor      205000  204197.
##  9 Blmngtn      191000  198635.
## 10 Greens       212625  198562.
## # ... with 17 more rows

# Least expensive neighborhood

ames_train %>%
  group_by(Neighborhood) %>%
  summarise(median = median(price), mean = mean(price)) %>%
  arrange(mean)

## # A tibble: 27 x 3
##    Neighborhood median    mean
##    <fct>         <dbl>   <dbl>
##  1 MeadowV       85750  92947.
##  2 IDOTRR        99500  97621.
##  3 BrDale        98750  98930 
##  4 OldTown      120000 120226.
##  5 BrkSide      124000 122473.
##  6 Blueste      123900 125800 
##  7 SWISU        134000 130620.
##  8 Edwards      127250 136322.
##  9 NPkVill      142100 139275 
## 10 Sawyer       136000 139313.
## # ... with 17 more rows

# Most heterogeneous neighborhood

ames_train %>%
  group_by(Neighborhood) %>%
  summarise(variance = var(price)) %>%
  arrange(desc(variance))

## # A tibble: 27 x 2
##    Neighborhood     variance
##    <fct>               <dbl>
##  1 StoneBr      15242150036.
##  2 NridgHt      11043676986.
##  3 Timber        7060968802.
##  4 Veenker       5262836111.
##  5 Crawfor       5079065345.
##  6 GrnHill       5000000000 
##  7 Somerst       4250973926.
##  8 Edwards       3008701120.
##  9 CollgCr       2786370244.
## 10 SawyerW       2338143789.
## # ... with 17 more rows
…
